// Jest Snapshot v1, https://goo.gl/fbAQLP

exports[`A event detail screen component matches with the snapshot 1`] = `
<View
  style={
    Object {
      "backgroundColor": "#fff",
      "flex": 1,
      "height": 1334,
    }
  }
>
  <RCTScrollView
    automaticallyAdjustContentInsets={false}
    contentContainerStyle={
      Array [
        Object {
          "padding": 10,
        },
        undefined,
      ]
    }
    contentInset={
      Object {
        "bottom": 0,
      }
    }
    enableAutomaticScroll={true}
    enableOnAndroid={false}
    enableResetScrollToCoords={true}
    extraHeight={75}
    extraScrollHeight={0}
    getScrollResponder={[Function]}
    handleOnScroll={[Function]}
    keyboardDismissMode="interactive"
    keyboardOpeningTime={250}
    keyboardShouldPersistTaps="handled"
    keyboardSpace={0}
    onScroll={[Function]}
    padder={true}
    resetKeyboardSpace={[Function]}
    resetScrollToCoords={
      Object {
        "x": 0,
        "y": 0,
      }
    }
    scrollEventThrottle={1}
    scrollForExtraHeightOnAndroid={[Function]}
    scrollIntoView={[Function]}
    scrollToEnd={[Function]}
    scrollToFocusedInput={[Function]}
    scrollToPosition={[Function]}
    showsVerticalScrollIndicator={true}
    style={
      Object {
        "backgroundColor": "transparent",
        "flex": 1,
      }
    }
    update={[Function]}
    viewIsInsideTabBar={false}
  >
    <View>
      <View
        style={
          Object {
            "flexDirection": "row",
            "marginBottom": 8,
          }
        }
      >
        <ActivityIndicator
          animating={true}
          color="#45D56E"
          hidesWhenStopped={true}
          size="large"
          style={
            Object {
              "height": 80,
            }
          }
        />
        <View
          style={
            Object {
              "flexDirection": "column",
              "marginLeft": 8,
            }
          }
        >
          <Text
            style={
              Array [
                Object {
                  "color": "#000",
                  "fontFamily": "System",
                  "fontSize": 16,
                },
                Object {
                  "fontWeight": "bold",
                },
              ]
            }
            uppercase={false}
          >
            Giorno Giovanna
          </Text>
          <Text
            style={
              Array [
                Object {
                  "color": "#000",
                  "fontFamily": "System",
                  "fontSize": 16,
                },
                Object {
                  "color": "#717171",
                  "fontSize": 14,
                  "fontStyle": "italic",
                },
              ]
            }
            uppercase={false}
          >
            Gang Star
          </Text>
          <Text
            style={
              Array [
                Object {
                  "color": "#000",
                  "fontFamily": "System",
                  "fontSize": 16,
                },
                Object {
                  "color": "#717171",
                  "fontSize": 14,
                  "fontStyle": "italic",
                },
              ]
            }
            uppercase={false}
          >
            Italy
          </Text>
        </View>
      </View>
      <View
        style={
          Object {
            "backgroundColor": "#4c387a",
          }
        }
      >
        <Text
          style={
            Array [
              Object {
                "color": "#000",
                "fontSize": 27,
                "lineHeight": 32,
              },
              Object {
                "fontSize": 16,
                "fontWeight": "bold",
                "padding": 8,
                "textTransform": "uppercase",
              },
              Object {
                "color": "#fffefe",
              },
            ]
          }
        >
          Sessions
        </Text>
      </View>
      <View
        style={
          Object {
            "alignItems": "flex-start",
            "flexDirection": "column",
            "padding": 8,
          }
        }
      >
        <Text
          style={
            Array [
              Object {
                "color": "#000",
                "fontFamily": "System",
                "fontSize": 16,
              },
              Object {
                "color": "#717171",
                "fontSize": 12,
              },
            ]
          }
          uppercase={false}
        />
        <Text
          style={
            Array [
              Object {
                "color": "#000",
                "fontFamily": "System",
                "fontSize": 16,
              },
              Object {
                "fontWeight": "bold",
              },
            ]
          }
          uppercase={false}
        />
        <View
          style={
            Object {
              "alignItems": "flex-start",
              "flexDirection": "row",
              "marginVertical": 4,
            }
          }
        >
          <Text
            allowFontScaling={false}
            style={
              Array [
                Object {
                  "color": undefined,
                  "fontSize": 12,
                },
                Array [
                  Object {
                    "color": "#000",
                    "fontSize": 30,
                  },
                  Object {
                    "color": "#000",
                    "fontSize": 30,
                  },
                  Object {
                    "fontSize": 14,
                  },
                ],
                Object {
                  "fontFamily": "simple-line-icons",
                  "fontStyle": "normal",
                  "fontWeight": "normal",
                },
                Object {},
              ]
            }
            type="SimpleLineIcons"
          >
            
          </Text>
          <Text
            style={
              Array [
                Object {
                  "color": "#000",
                  "fontFamily": "System",
                  "fontSize": 16,
                },
                Object {
                  "color": "#717171",
                  "fontSize": 12,
                },
              ]
            }
            uppercase={false}
          >
               
          </Text>
        </View>
        <View
          style={
            Object {
              "alignItems": "flex-start",
              "flexDirection": "row",
              "marginVertical": 4,
            }
          }
        >
          <Text
            allowFontScaling={false}
            style={
              Array [
                Object {
                  "color": undefined,
                  "fontSize": 12,
                },
                Array [
                  Object {
                    "color": "#000",
                    "fontSize": 30,
                  },
                  Object {
                    "color": "#000",
                    "fontSize": 30,
                  },
                  Object {
                    "fontSize": 14,
                  },
                ],
                Object {
                  "fontFamily": "simple-line-icons",
                  "fontStyle": "normal",
                  "fontWeight": "normal",
                },
                Object {},
              ]
            }
            type="SimpleLineIcons"
          >
            
          </Text>
          <Text
            style={
              Array [
                Object {
                  "color": "#000",
                  "fontFamily": "System",
                  "fontSize": 16,
                },
                Object {
                  "color": "#717171",
                  "fontSize": 12,
                },
              ]
            }
            uppercase={false}
          >
               
          </Text>
        </View>
      </View>
      <View
        style={
          Object {
            "backgroundColor": "#4c387a",
          }
        }
      >
        <Text
          style={
            Array [
              Object {
                "color": "#000",
                "fontSize": 27,
                "lineHeight": 32,
              },
              Object {
                "fontSize": 16,
                "fontWeight": "bold",
                "padding": 8,
                "textTransform": "uppercase",
              },
              Object {
                "color": "#fffefe",
              },
            ]
          }
        >
          Abstract
        </Text>
      </View>
      <Text
        style={
          Array [
            Object {
              "color": "#000",
              "fontFamily": "System",
              "fontSize": 16,
            },
            Object {
              "color": "#717171",
              "fontSize": 14,
              "padding": 8,
            },
          ]
        }
        uppercase={false}
      />
      <View
        style={
          Object {
            "backgroundColor": "#4c387a",
          }
        }
      >
        <Text
          style={
            Array [
              Object {
                "color": "#000",
                "fontSize": 27,
                "lineHeight": 32,
              },
              Object {
                "fontSize": 16,
                "fontWeight": "bold",
                "padding": 8,
                "textTransform": "uppercase",
              },
              Object {
                "color": "#fffefe",
              },
            ]
          }
        >
          Biography
        </Text>
      </View>
      <Text
        style={
          Array [
            Object {
              "color": "#000",
              "fontFamily": "System",
              "fontSize": 16,
            },
            Object {
              "color": "#717171",
              "fontSize": 14,
              "padding": 8,
            },
          ]
        }
        uppercase={false}
      >
        I, Giorno Giovanna, have a dream.
      </Text>
    </View>
  </RCTScrollView>
</View>
`;
