// Jest Snapshot v1, https://goo.gl/fbAQLP

exports[`A venue map screen component matches with the snapshot 1`] = `
<View
  style={
    Object {
      "backgroundColor": "#fff",
      "flex": 1,
      "height": 1334,
    }
  }
>
  <RCTScrollView
    automaticallyAdjustContentInsets={false}
    contentContainerStyle={
      Array [
        Object {
          "padding": undefined,
        },
        undefined,
      ]
    }
    contentInset={
      Object {
        "bottom": 0,
      }
    }
    enableAutomaticScroll={true}
    enableOnAndroid={false}
    enableResetScrollToCoords={true}
    extraHeight={75}
    extraScrollHeight={0}
    getScrollResponder={[Function]}
    handleOnScroll={[Function]}
    keyboardDismissMode="interactive"
    keyboardOpeningTime={250}
    keyboardShouldPersistTaps="handled"
    keyboardSpace={0}
    onScroll={[Function]}
    resetKeyboardSpace={[Function]}
    resetScrollToCoords={
      Object {
        "x": 0,
        "y": 0,
      }
    }
    scrollEventThrottle={1}
    scrollForExtraHeightOnAndroid={[Function]}
    scrollIntoView={[Function]}
    scrollToEnd={[Function]}
    scrollToFocusedInput={[Function]}
    scrollToPosition={[Function]}
    showsVerticalScrollIndicator={true}
    style={
      Object {
        "backgroundColor": "transparent",
        "flex": 1,
      }
    }
    update={[Function]}
    viewIsInsideTabBar={false}
  >
    <View>
      <Text
        style={
          Array [
            Object {
              "color": "#000",
              "fontFamily": "System",
              "fontSize": 16,
            },
            Object {
              "backgroundColor": "#4c387a",
              "flexDirection": "row",
              "justifyContent": "center",
              "padding": 8,
            },
          ]
        }
        uppercase={false}
      >
        <Text
          style={
            Array [
              Object {
                "color": "#000",
                "fontSize": 27,
                "lineHeight": 32,
              },
              Object {
                "color": "white",
                "fontSize": 16,
                "fontWeight": "bold",
                "marginHorizontal": 2,
                "textTransform": "uppercase",
              },
            ]
          }
        >
          Padang Convention Center
        </Text>
      </Text>
      <View>
        <ActivityIndicator
          animating={true}
          color="#45D56E"
          hidesWhenStopped={true}
          size="large"
          style={
            Object {
              "height": 80,
            }
          }
        />
        <ActivityIndicator
          animating={true}
          color="#45D56E"
          hidesWhenStopped={true}
          size="large"
          style={
            Object {
              "height": 80,
            }
          }
        />
        <ActivityIndicator
          animating={true}
          color="#45D56E"
          hidesWhenStopped={true}
          size="large"
          style={
            Object {
              "height": 80,
            }
          }
        />
      </View>
    </View>
  </RCTScrollView>
</View>
`;
