// Jest Snapshot v1, https://goo.gl/fbAQLP

exports[`A submission list item matches with the snapshot 1`] = `
<View
  style={
    Object {
      "flexDirection": "row",
      "marginBottom": 8,
    }
  }
>
  <View
    style={
      Object {
        "alignSelf": "center",
        "flex": 0,
        "marginHorizontal": 12,
      }
    }
  >
    <Text
      style={
        Object {
          "color": "#000",
          "fontFamily": "System",
          "fontSize": 16,
        }
      }
      uppercase={false}
    >
      NaN
    </Text>
  </View>
  <View
    style={
      Object {
        "flex": 5,
        "flexDirection": "column",
      }
    }
  >
    <Text
      style={
        Array [
          Object {
            "color": "#000",
            "fontFamily": "System",
            "fontSize": 16,
          },
          Object {
            "fontSize": 16,
            "fontWeight": "bold",
            "marginVertical": 4,
          },
        ]
      }
      uppercase={false}
    >
      The Circle of Life
    </Text>
    <Text
      style={
        Array [
          Object {
            "color": "#000",
            "fontFamily": "System",
            "fontSize": 16,
          },
          Object {
            "fontSize": 14,
            "marginVertical": 4,
          },
        ]
      }
      uppercase={false}
    >
      Simba and Friends
    </Text>
    <View
      accessible={true}
      isTVSelectable={true}
      onResponderGrant={[Function]}
      onResponderMove={[Function]}
      onResponderRelease={[Function]}
      onResponderTerminate={[Function]}
      onResponderTerminationRequest={[Function]}
      onStartShouldSetResponder={[Function]}
      style={null}
    >
      <Text
        style={
          Array [
            Object {
              "color": "#000",
              "fontFamily": "System",
              "fontSize": 16,
            },
            Object {
              "color": "#e13154",
              "fontSize": 12,
              "marginVertical": 4,
              "textTransform": "uppercase",
            },
          ]
        }
        uppercase={false}
      >
        View Detail
      </Text>
    </View>
  </View>
</View>
`;
